<svg fill="currentColor" width="24" height="24" viewBox="0 0 24 24" class="material-design-icon__svg">
  <path d="M4,11V13H16L10.5,18.5L11.92,19.92L19.84,12L11.92,4.08L10.5,5.5L16,11H4Z"></path>
</svg>
