<svg fill="currentColor" width="24" height="24" viewBox="0 0 24 24" class="material-design-icon__svg">
  <path d="M12,2A10,10 0 0,0 2,12A10,10 0 0,0 12,22A10,10 0 0,0 22,12A10,10 0 0,0 12,2M16.2,16.2L11,13V7H12.5V12.2L17,14.9L16.2,16.2Z"></path>
</svg>
